{"url":"https:\/\/antaressoft.bitrix24.ru\/rest\/120\/k4hgwbw1918dyok8\/crm.contact.list.json","info":{"url":"https:\/\/antaressoft.bitrix24.ru\/rest\/120\/k4hgwbw1918dyok8\/crm.contact.list.json","content_type":"application\/json; charset=utf-8","http_code":200,"header_size":1030,"request_size":214,"filetime":-1,"ssl_verify_result":19,"redirect_count":0,"total_time":0.530466,"namelookup_time":0.066208,"connect_time":0.105384,"pretransfer_time":0.169031,"size_upload":75,"size_download":2576,"speed_download":4856,"speed_upload":141,"download_content_length":-1,"upload_content_length":75,"starttransfer_time":0.169068,"redirect_time":0,"redirect_url":"","primary_ip":"178.132.201.52","certinfo":[],"primary_port":443,"local_ip":"192.168.0.176","local_port":56085,"http_version":3,"protocol":2,"ssl_verifyresult":0,"scheme":"HTTPS","appconnect_time_us":168858,"connect_time_us":105384,"namelookup_time_us":66208,"pretransfer_time_us":169031,"redirect_time_us":0,"starttransfer_time_us":169068,"total_time_us":530466,"effective_method":"POST"},"params":{"method":"crm.contact.list","params":{"select":["ID","NAME","PHONE"],"order":{"NAME":"ASC"},"filter":[]}},"result":{"result":[{"ID":"32","NAME":null},{"ID":"8754","NAME":null},{"ID":"8772","NAME":null},{"ID":"8780","NAME":null},{"ID":"8804","NAME":null},{"ID":"8812","NAME":null},{"ID":"8814","NAME":null},{"ID":"8824","NAME":null},{"ID":"8832","NAME":null},{"ID":"8848","NAME":null},{"ID":"4198","NAME":" "},{"ID":"4240","NAME":" "},{"ID":"4348","NAME":" "},{"ID":"4468","NAME":" "},{"ID":"4740","NAME":" "},{"ID":"4814","NAME":" "},{"ID":"4820","NAME":" "},{"ID":"4838","NAME":" "},{"ID":"5038","NAME":" "},{"ID":"5072","NAME":" "},{"ID":"5146","NAME":" "},{"ID":"5330","NAME":" "},{"ID":"5556","NAME":" "},{"ID":"5798","NAME":" "},{"ID":"5968","NAME":" "},{"ID":"6022","NAME":" "},{"ID":"6320","NAME":" "},{"ID":"6878","NAME":" "},{"ID":"7724","NAME":" "},{"ID":"7818","NAME":" "},{"ID":"7912","NAME":" "},{"ID":"8868","NAME":"  \u0410\u043b\u044c\u0444\u0438\u0440","PHONE":[{"ID":"27416","VALUE_TYPE":"WORK","VALUE":"+79771000299","TYPE_ID":"PHONE"}]},{"ID":"8822","NAME":"asd","PHONE":[{"ID":"27178","VALUE_TYPE":"OTHER","VALUE":"+1232312312312","TYPE_ID":"PHONE"}]},{"ID":"8854","NAME":"TIMUR KARIMOV","PHONE":[{"ID":"27270","VALUE_TYPE":"WORK","VALUE":"+79191440844","TYPE_ID":"PHONE"}]},{"ID":"5914","NAME":"\u0410\u0431\u0430\u0434\u0438\u044f"},{"ID":"5374","NAME":"\u0410\u0431\u0443\u0437\u0430\u0440"},{"ID":"7716","NAME":"\u0410\u0432\u0437\u0430\u043b"},{"ID":"8632","NAME":"\u0410\u0432\u0437\u0430\u043b"},{"ID":"4116","NAME":"\u0410\u0434\u0435\u043b\u044c\u0448\u0430"},{"ID":"4276","NAME":"\u0410\u0434\u0435\u043b\u044f"},{"ID":"5156","NAME":"\u0410\u0434\u0438\u043b\u044c"},{"ID":"8852","NAME":"\u0410\u0434\u0438\u043b\u044f","PHONE":[{"ID":"27254","VALUE_TYPE":"OTHER","VALUE":"+79656657537","TYPE_ID":"PHONE"}]},{"ID":"5794","NAME":"\u0410\u0434\u0438\u0441"},{"ID":"7956","NAME":"\u0410\u0437\u0430\u043b\u0438\u044f"},{"ID":"8658","NAME":"\u0410\u0437\u0430\u043b\u0438\u044f","PHONE":[{"ID":"26660","VALUE_TYPE":"WORK","VALUE":"+79999999999","TYPE_ID":"PHONE"}]},{"ID":"3976","NAME":"\u0410\u0437\u0430\u043c\u0430\u0442"},{"ID":"4158","NAME":"\u0410\u0437\u0430\u043c\u0430\u0442"},{"ID":"4958","NAME":"\u0410\u0437\u0430\u043c\u0430\u0442"},{"ID":"5220","NAME":"\u0410\u0437\u0430\u043c\u0430\u0442"},{"ID":"6252","NAME":"\u0410\u0437\u0430\u043c\u0430\u0442"}],"next":50,"total":2496,"time":{"start":1700206258.240272,"finish":1700206258.464394,"duration":0.2241220474243164,"processing":0.1745619773864746,"date_start":"2023-11-17T10:30:58+03:00","date_finish":"2023-11-17T10:30:58+03:00","operating_reset_at":1700206858,"operating":0.4229011535644531}}}