{"url":"https:\/\/antaressoft.bitrix24.ru\/rest\/120\/k4hgwbw1918dyok8\/crm.contact.list.json","info":{"url":"https:\/\/antaressoft.bitrix24.ru\/rest\/120\/k4hgwbw1918dyok8\/crm.contact.list.json","content_type":"application\/json; charset=utf-8","http_code":200,"header_size":1031,"request_size":214,"filetime":-1,"ssl_verify_result":19,"redirect_count":0,"total_time":0.364873,"namelookup_time":0.047531,"connect_time":0.07561,"pretransfer_time":0.145259,"size_upload":99,"size_download":3376,"speed_download":9252,"speed_upload":271,"download_content_length":-1,"upload_content_length":99,"starttransfer_time":0.145273,"redirect_time":0,"redirect_url":"","primary_ip":"89.208.228.119","certinfo":[],"primary_port":443,"local_ip":"192.168.0.176","local_port":56248,"http_version":3,"protocol":2,"ssl_verifyresult":0,"scheme":"HTTPS","appconnect_time_us":144983,"connect_time_us":75610,"namelookup_time_us":47531,"pretransfer_time_us":145259,"redirect_time_us":0,"starttransfer_time_us":145273,"total_time_us":364873,"effective_method":"POST"},"params":{"method":"crm.contact.list","params":{"select":["ID","NAME","PHONE","HAS_PHONE"],"order":{"NAME":"ASC"},"filter":[]}},"result":{"result":[{"ID":"32","NAME":null,"HAS_PHONE":"N"},{"ID":"8754","NAME":null,"HAS_PHONE":"N"},{"ID":"8772","NAME":null,"HAS_PHONE":"N"},{"ID":"8780","NAME":null,"HAS_PHONE":"N"},{"ID":"8804","NAME":null,"HAS_PHONE":"N"},{"ID":"8812","NAME":null,"HAS_PHONE":"N"},{"ID":"8814","NAME":null,"HAS_PHONE":"N"},{"ID":"8824","NAME":null,"HAS_PHONE":"N"},{"ID":"8832","NAME":null,"HAS_PHONE":"N"},{"ID":"8848","NAME":null,"HAS_PHONE":"N"},{"ID":"4198","NAME":" ","HAS_PHONE":"N"},{"ID":"4240","NAME":" ","HAS_PHONE":"N"},{"ID":"4348","NAME":" ","HAS_PHONE":"N"},{"ID":"4468","NAME":" ","HAS_PHONE":"N"},{"ID":"4740","NAME":" ","HAS_PHONE":"N"},{"ID":"4814","NAME":" ","HAS_PHONE":"N"},{"ID":"4820","NAME":" ","HAS_PHONE":"N"},{"ID":"4838","NAME":" ","HAS_PHONE":"N"},{"ID":"5038","NAME":" ","HAS_PHONE":"N"},{"ID":"5072","NAME":" ","HAS_PHONE":"N"},{"ID":"5146","NAME":" ","HAS_PHONE":"N"},{"ID":"5330","NAME":" ","HAS_PHONE":"N"},{"ID":"5556","NAME":" ","HAS_PHONE":"N"},{"ID":"5798","NAME":" ","HAS_PHONE":"N"},{"ID":"5968","NAME":" ","HAS_PHONE":"N"},{"ID":"6022","NAME":" ","HAS_PHONE":"N"},{"ID":"6320","NAME":" ","HAS_PHONE":"N"},{"ID":"6878","NAME":" ","HAS_PHONE":"N"},{"ID":"7724","NAME":" ","HAS_PHONE":"N"},{"ID":"7818","NAME":" ","HAS_PHONE":"N"},{"ID":"7912","NAME":" ","HAS_PHONE":"N"},{"ID":"8868","NAME":"  \u0410\u043b\u044c\u0444\u0438\u0440","HAS_PHONE":"Y","PHONE":[{"ID":"27416","VALUE_TYPE":"WORK","VALUE":"+79771000299","TYPE_ID":"PHONE"}]},{"ID":"8822","NAME":"asd","HAS_PHONE":"Y","PHONE":[{"ID":"27178","VALUE_TYPE":"OTHER","VALUE":"+1232312312312","TYPE_ID":"PHONE"}]},{"ID":"8854","NAME":"TIMUR KARIMOV","HAS_PHONE":"Y","PHONE":[{"ID":"27270","VALUE_TYPE":"WORK","VALUE":"+79191440844","TYPE_ID":"PHONE"}]},{"ID":"5914","NAME":"\u0410\u0431\u0430\u0434\u0438\u044f","HAS_PHONE":"N"},{"ID":"5374","NAME":"\u0410\u0431\u0443\u0437\u0430\u0440","HAS_PHONE":"N"},{"ID":"7716","NAME":"\u0410\u0432\u0437\u0430\u043b","HAS_PHONE":"N"},{"ID":"8632","NAME":"\u0410\u0432\u0437\u0430\u043b","HAS_PHONE":"N"},{"ID":"4116","NAME":"\u0410\u0434\u0435\u043b\u044c\u0448\u0430","HAS_PHONE":"N"},{"ID":"4276","NAME":"\u0410\u0434\u0435\u043b\u044f","HAS_PHONE":"N"},{"ID":"5156","NAME":"\u0410\u0434\u0438\u043b\u044c","HAS_PHONE":"N"},{"ID":"8852","NAME":"\u0410\u0434\u0438\u043b\u044f","HAS_PHONE":"Y","PHONE":[{"ID":"27254","VALUE_TYPE":"OTHER","VALUE":"+79656657537","TYPE_ID":"PHONE"}]},{"ID":"5794","NAME":"\u0410\u0434\u0438\u0441","HAS_PHONE":"N"},{"ID":"7956","NAME":"\u0410\u0437\u0430\u043b\u0438\u044f","HAS_PHONE":"N"},{"ID":"8658","NAME":"\u0410\u0437\u0430\u043b\u0438\u044f","HAS_PHONE":"Y","PHONE":[{"ID":"26660","VALUE_TYPE":"WORK","VALUE":"+79999999999","TYPE_ID":"PHONE"}]},{"ID":"3976","NAME":"\u0410\u0437\u0430\u043c\u0430\u0442","HAS_PHONE":"N"},{"ID":"4158","NAME":"\u0410\u0437\u0430\u043c\u0430\u0442","HAS_PHONE":"N"},{"ID":"4958","NAME":"\u0410\u0437\u0430\u043c\u0430\u0442","HAS_PHONE":"N"},{"ID":"5220","NAME":"\u0410\u0437\u0430\u043c\u0430\u0442","HAS_PHONE":"N"},{"ID":"6252","NAME":"\u0410\u0437\u0430\u043c\u0430\u0442","HAS_PHONE":"N"}],"next":50,"total":2496,"time":{"start":1700206381.903101,"finish":1700206382.025781,"duration":0.1226799488067627,"processing":0.08047890663146973,"date_start":"2023-11-17T10:33:01+03:00","date_finish":"2023-11-17T10:33:02+03:00","operating_reset_at":1700206981,"operating":0.4229011535644531}}}