{"url":"https:\/\/antaressoft.bitrix24.ru\/rest\/120\/k4hgwbw1918dyok8\/crm.contact.list.json","info":{"url":"https:\/\/antaressoft.bitrix24.ru\/rest\/120\/k4hgwbw1918dyok8\/crm.contact.list.json","content_type":"application\/json; charset=utf-8","http_code":200,"header_size":1032,"request_size":215,"filetime":-1,"ssl_verify_result":19,"redirect_count":0,"total_time":0.300004,"namelookup_time":0.000986,"connect_time":0.037084,"pretransfer_time":0.072317,"size_upload":123,"size_download":8723,"speed_download":29076,"speed_upload":409,"download_content_length":-1,"upload_content_length":123,"starttransfer_time":0.072336,"redirect_time":0,"redirect_url":"","primary_ip":"89.208.228.119","certinfo":[],"primary_port":443,"local_ip":"192.168.0.176","local_port":56259,"http_version":3,"protocol":2,"ssl_verifyresult":0,"scheme":"HTTPS","appconnect_time_us":71792,"connect_time_us":37084,"namelookup_time_us":986,"pretransfer_time_us":72317,"redirect_time_us":0,"starttransfer_time_us":72336,"total_time_us":300004,"effective_method":"POST"},"params":{"method":"crm.contact.list","params":{"select":["ID","NAME","PHONE","HAS_PHONE"],"order":{"NAME":"ASC"},"filter":{"HAS_PHONE":"Y"}}},"result":{"result":[{"ID":"8868","NAME":"  \u0410\u043b\u044c\u0444\u0438\u0440","HAS_PHONE":"Y","PHONE":[{"ID":"27416","VALUE_TYPE":"WORK","VALUE":"+79771000299","TYPE_ID":"PHONE"}]},{"ID":"8822","NAME":"asd","HAS_PHONE":"Y","PHONE":[{"ID":"27178","VALUE_TYPE":"OTHER","VALUE":"+1232312312312","TYPE_ID":"PHONE"}]},{"ID":"8854","NAME":"TIMUR KARIMOV","HAS_PHONE":"Y","PHONE":[{"ID":"27270","VALUE_TYPE":"WORK","VALUE":"+79191440844","TYPE_ID":"PHONE"}]},{"ID":"8852","NAME":"\u0410\u0434\u0438\u043b\u044f","HAS_PHONE":"Y","PHONE":[{"ID":"27254","VALUE_TYPE":"OTHER","VALUE":"+79656657537","TYPE_ID":"PHONE"}]},{"ID":"8658","NAME":"\u0410\u0437\u0430\u043b\u0438\u044f","HAS_PHONE":"Y","PHONE":[{"ID":"26660","VALUE_TYPE":"WORK","VALUE":"+79999999999","TYPE_ID":"PHONE"}]},{"ID":"8760","NAME":"\u0410\u0439\u0433\u0443\u043b\u044c","HAS_PHONE":"Y","PHONE":[{"ID":"27048","VALUE_TYPE":"WORK","VALUE":"+79373300231","TYPE_ID":"PHONE"}]},{"ID":"8704","NAME":"\u0410\u043b\u0435\u043a\u0441\u0430\u043d\u0434\u0440","HAS_PHONE":"Y","PHONE":[{"ID":"26768","VALUE_TYPE":"WORK","VALUE":"+79100133450","TYPE_ID":"PHONE"}]},{"ID":"52","NAME":"\u0410\u043b\u0435\u043a\u0441\u0430\u043d\u0434\u0440","HAS_PHONE":"Y","PHONE":[{"ID":"120","VALUE_TYPE":"WORK","VALUE":"+79051910144","TYPE_ID":"PHONE"}]},{"ID":"8794","NAME":"\u0410\u043b\u0435\u043a\u0441\u0430\u043d\u0434\u0440","HAS_PHONE":"Y","PHONE":[{"ID":"27138","VALUE_TYPE":"WORK","VALUE":"+79242916852","TYPE_ID":"PHONE"}]},{"ID":"8756","NAME":"\u0410\u043b\u0435\u043a\u0441\u0435\u0439","HAS_PHONE":"Y","PHONE":[{"ID":"27032","VALUE_TYPE":"WORK","VALUE":"+79581588876","TYPE_ID":"PHONE"}]},{"ID":"8736","NAME":"\u0410\u043b\u0435\u043a\u0441\u0435\u0439","HAS_PHONE":"Y","PHONE":[{"ID":"26984","VALUE_TYPE":"WORK","VALUE":"+79896115260","TYPE_ID":"PHONE"}]},{"ID":"8732","NAME":"\u0410\u043b\u0435\u043a\u0441\u0435\u0439","HAS_PHONE":"Y","PHONE":[{"ID":"26916","VALUE_TYPE":"WORK","VALUE":"+79137693232","TYPE_ID":"PHONE"}]},{"ID":"8776","NAME":"\u0410\u043b\u0435\u043a\u0441\u0435\u0439","HAS_PHONE":"Y","PHONE":[{"ID":"27088","VALUE_TYPE":"WORK","VALUE":"+78463592021","TYPE_ID":"PHONE"}]},{"ID":"8778","NAME":"\u0410\u043b\u0435\u043a\u0441\u0435\u0439","HAS_PHONE":"Y","PHONE":[{"ID":"27096","VALUE_TYPE":"WORK","VALUE":"+79873583815","TYPE_ID":"PHONE"}]},{"ID":"54","NAME":"\u0410\u043b\u0435\u043d\u0430","HAS_PHONE":"Y","PHONE":[{"ID":"130","VALUE_TYPE":"WORK","VALUE":"+79625260550","TYPE_ID":"PHONE"}]},{"ID":"8700","NAME":"\u0410\u043b\u0438\u043d\u0430","HAS_PHONE":"Y","PHONE":[{"ID":"26748","VALUE_TYPE":"WORK","VALUE":"+79870035691","TYPE_ID":"PHONE"}]},{"ID":"8616","NAME":"\u0410\u043c\u0438\u0440","HAS_PHONE":"Y","PHONE":[{"ID":"26574","VALUE_TYPE":"WORK","VALUE":"83472002660","TYPE_ID":"PHONE"},{"ID":"26576","VALUE_TYPE":"WORK","VALUE":"83472851242","TYPE_ID":"PHONE"},{"ID":"26578","VALUE_TYPE":"WORK","VALUE":"83472002560","TYPE_ID":"PHONE"}]},{"ID":"44","NAME":"\u0410\u043d\u0430\u0441\u0442\u0430\u0441\u0438\u044f","HAS_PHONE":"Y","PHONE":[{"ID":"100","VALUE_TYPE":"WORK","VALUE":"+79173521804","TYPE_ID":"PHONE"}]},{"ID":"8702","NAME":"\u0410\u043d\u0430\u0441\u0442\u0430\u0441\u0438\u044f","HAS_PHONE":"Y","PHONE":[{"ID":"26766","VALUE_TYPE":"WORK","VALUE":"+79196145025","TYPE_ID":"PHONE"}]},{"ID":"8684","NAME":"\u0410\u043d\u0430\u0441\u0442\u0430\u0441\u0438\u044f","HAS_PHONE":"Y","PHONE":[{"ID":"26692","VALUE_TYPE":"WORK","VALUE":"+79373137867","TYPE_ID":"PHONE"}]},{"ID":"8742","NAME":"\u0410\u043d\u0434\u0440\u0435\u044e\u043a \u0420\u043e\u043c\u0430\u043d","HAS_PHONE":"Y","PHONE":[{"ID":"26996","VALUE_TYPE":"WORK","VALUE":"+79142044468","TYPE_ID":"PHONE"}]},{"ID":"8758","NAME":"\u0410\u043d\u043d\u0430","HAS_PHONE":"Y","PHONE":[{"ID":"27038","VALUE_TYPE":"WORK","VALUE":"+79128740400","TYPE_ID":"PHONE"}]},{"ID":"8788","NAME":"\u0410\u043d\u043d\u0430","HAS_PHONE":"Y","PHONE":[{"ID":"27124","VALUE_TYPE":"WORK","VALUE":"+79011495136","TYPE_ID":"PHONE"}]},{"ID":"8746","NAME":"\u0410\u043d\u0442\u043e\u043d","HAS_PHONE":"Y","PHONE":[{"ID":"27004","VALUE_TYPE":"WORK","VALUE":"+79994644409","TYPE_ID":"PHONE"}]},{"ID":"8870","NAME":"\u0410\u0440\u0442\u0435\u043c","HAS_PHONE":"Y","PHONE":[{"ID":"27422","VALUE_TYPE":"WORK","VALUE":"+79279669936","TYPE_ID":"PHONE"}]},{"ID":"8712","NAME":"\u0410\u0440\u0442\u0443\u0440","HAS_PHONE":"Y","PHONE":[{"ID":"254","VALUE_TYPE":"WORK","VALUE":"83472577787","TYPE_ID":"PHONE"}]},{"ID":"8866","NAME":"\u0412\u0430\u0434\u0438\u043c","HAS_PHONE":"Y","PHONE":[{"ID":"27412","VALUE_TYPE":"WORK","VALUE":"+79529774746","TYPE_ID":"PHONE"}]},{"ID":"8750","NAME":"\u0412\u0430\u043b\u0435\u043d\u0442\u0438\u043d\u0430","HAS_PHONE":"Y","PHONE":[{"ID":"27016","VALUE_TYPE":"WORK","VALUE":"+79142665723","TYPE_ID":"PHONE"}]},{"ID":"8722","NAME":"\u0412\u0430\u043b\u0435\u0440\u0438\u0439","HAS_PHONE":"Y","PHONE":[{"ID":"26850","VALUE_TYPE":"WORK","VALUE":"+79081815516","TYPE_ID":"PHONE"}]},{"ID":"8830","NAME":"\u0412\u0430\u043b\u0435\u0440\u0438\u0439","HAS_PHONE":"Y","PHONE":[{"ID":"27198","VALUE_TYPE":"WORK","VALUE":"+79272369476","TYPE_ID":"PHONE"}]},{"ID":"8864","NAME":"\u0412\u0430\u043d\u0435\u043a","HAS_PHONE":"Y","PHONE":[{"ID":"27390","VALUE_TYPE":"OTHER","VALUE":"+9021660365","TYPE_ID":"PHONE"}]},{"ID":"8762","NAME":"\u0412\u0438\u043a\u0442\u043e\u0440 \u0412\u0438\u0442\u0430\u043b\u044c\u0435\u0432\u0438\u0447","HAS_PHONE":"Y","PHONE":[{"ID":"27054","VALUE_TYPE":"WORK","VALUE":"+79270848250","TYPE_ID":"PHONE"}]},{"ID":"8828","NAME":"\u0412\u0438\u043a\u0442\u043e\u0440\u0438\u044f ","HAS_PHONE":"Y","PHONE":[{"ID":"27194","VALUE_TYPE":"WORK","VALUE":"+79034063613","TYPE_ID":"PHONE"}]},{"ID":"8728","NAME":"\u0412\u0438\u043c\u0431\u0438\u043b\u044c\u0434\u0430\u043d","HAS_PHONE":"Y","PHONE":[{"ID":"26860","VALUE_TYPE":"OTHER","VALUE":"+73123132313","TYPE_ID":"PHONE"}]},{"ID":"8846","NAME":"\u0412\u0438\u0442\u0430\u043b\u0438\u0439","HAS_PHONE":"Y","PHONE":[{"ID":"27246","VALUE_TYPE":"WORK","VALUE":"+79173404555","TYPE_ID":"PHONE"}]},{"ID":"8768","NAME":"\u0412\u0438\u0442\u0430\u043b\u0438\u0439","HAS_PHONE":"Y","PHONE":[{"ID":"27072","VALUE_TYPE":"WORK","VALUE":"+79273345616","TYPE_ID":"PHONE"}]},{"ID":"8488","NAME":"\u0412\u0438\u0442\u0430\u043b\u0438\u0439","HAS_PHONE":"Y","PHONE":[{"ID":"26384","VALUE_TYPE":"WORK","VALUE":"+79174004819","TYPE_ID":"PHONE"}]},{"ID":"28","NAME":"\u0412\u044f\u0447\u0435\u0441\u043b\u0430\u0432","HAS_PHONE":"Y","PHONE":[{"ID":"64","VALUE_TYPE":"WORK","VALUE":"+79051734444","TYPE_ID":"PHONE"}]},{"ID":"8826","NAME":"\u0413\u0443\u0437\u0435\u043b\u044c","HAS_PHONE":"Y","PHONE":[{"ID":"27190","VALUE_TYPE":"WORK","VALUE":"+79649648889","TYPE_ID":"PHONE"}]},{"ID":"8786","NAME":"\u0414\u0430\u043d\u0438\u043b","HAS_PHONE":"Y","PHONE":[{"ID":"27118","VALUE_TYPE":"WORK","VALUE":"+79227952991","TYPE_ID":"PHONE"}]},{"ID":"8790","NAME":"\u0414\u0430\u043d\u0438\u043b\u0430","HAS_PHONE":"Y","PHONE":[{"ID":"27130","VALUE_TYPE":"WORK","VALUE":"+79190205361","TYPE_ID":"PHONE"}]},{"ID":"8492","NAME":"\u0434\u0430\u043d\u0438\u0441","HAS_PHONE":"Y","PHONE":[{"ID":"26402","VALUE_TYPE":"WORK","VALUE":"+79603902969","TYPE_ID":"PHONE"}]},{"ID":"8680","NAME":"\u0414\u0430\u043d\u0438\u0441","HAS_PHONE":"Y","PHONE":[{"ID":"26676","VALUE_TYPE":"WORK","VALUE":"+79601354543","TYPE_ID":"PHONE"}]},{"ID":"8782","NAME":"\u0414\u0430\u0440\u044c\u044f","HAS_PHONE":"Y","PHONE":[{"ID":"27110","VALUE_TYPE":"WORK","VALUE":"+79043745550","TYPE_ID":"PHONE"}]},{"ID":"8816","NAME":"\u0414\u0435\u043d\u0438\u0441","HAS_PHONE":"Y","PHONE":[{"ID":"27170","VALUE_TYPE":"WORK","VALUE":"+79046386444","TYPE_ID":"PHONE"}]},{"ID":"8844","NAME":"\u0414\u0438\u0430\u043d\u0430","HAS_PHONE":"Y","PHONE":[{"ID":"27238","VALUE_TYPE":"WORK","VALUE":"+79096352405","TYPE_ID":"PHONE"}]},{"ID":"8602","NAME":"\u0414\u043c\u0438\u0442\u0440\u0438\u0439","HAS_PHONE":"Y","PHONE":[{"ID":"26556","VALUE_TYPE":"WORK","VALUE":"83472930033","TYPE_ID":"PHONE"}]},{"ID":"8706","NAME":"\u0414\u043c\u0438\u0442\u0440\u0438\u0439","HAS_PHONE":"Y","PHONE":[{"ID":"26776","VALUE_TYPE":"WORK","VALUE":"+79526589055","TYPE_ID":"PHONE"}]},{"ID":"8696","NAME":"\u0414\u043c\u0438\u0442\u0440\u0438\u0439","HAS_PHONE":"Y","PHONE":[{"ID":"26734","VALUE_TYPE":"WORK","VALUE":"+79626149016","TYPE_ID":"PHONE"}]},{"ID":"8858","NAME":"\u0414\u043c\u0438\u0442\u0440\u0438\u0439","HAS_PHONE":"Y","PHONE":[{"ID":"27302","VALUE_TYPE":"WORK","VALUE":"+79170486655","TYPE_ID":"PHONE"}]}],"next":50,"total":119,"time":{"start":1700206395.411485,"finish":1700206395.576096,"duration":0.1646111011505127,"processing":0.13499212265014648,"date_start":"2023-11-17T10:33:15+03:00","date_finish":"2023-11-17T10:33:15+03:00","operating_reset_at":1700206995,"operating":0.5578732490539551}}}