{"url":"https:\/\/antaressoft.bitrix24.ru\/rest\/120\/k4hgwbw1918dyok8\/crm.contact.list.json","info":{"url":"https:\/\/antaressoft.bitrix24.ru\/rest\/120\/k4hgwbw1918dyok8\/crm.contact.list.json","content_type":"application\/json; charset=utf-8","http_code":200,"header_size":1030,"request_size":214,"filetime":-1,"ssl_verify_result":19,"redirect_count":0,"total_time":0.309812,"namelookup_time":0.04295,"connect_time":0.076184,"pretransfer_time":0.115088,"size_upload":65,"size_download":3205,"speed_download":10344,"speed_upload":209,"download_content_length":-1,"upload_content_length":65,"starttransfer_time":0.115098,"redirect_time":0,"redirect_url":"","primary_ip":"178.132.201.51","certinfo":[],"primary_port":443,"local_ip":"192.168.0.176","local_port":55609,"http_version":3,"protocol":2,"ssl_verifyresult":0,"scheme":"HTTPS","appconnect_time_us":114923,"connect_time_us":76184,"namelookup_time_us":42950,"pretransfer_time_us":115088,"redirect_time_us":0,"starttransfer_time_us":115098,"total_time_us":309812,"effective_method":"POST"},"params":{"method":"crm.contact.list","params":{"select":["ID","NAME","PHONE"],"start":200}},"result":{"result":[{"ID":"4188","NAME":"\u0420\u0430\u0444\u0438\u0441"},{"ID":"4190","NAME":"\u0414\u043c\u0438\u0442\u0440\u0438\u0439"},{"ID":"4192","NAME":"\u0420\u0430\u0441\u0443\u043b"},{"ID":"4194","NAME":"\u0424\u0430\u043d\u0438\u043b\u044c"},{"ID":"4196","NAME":"\u0420\u043e\u0431\u0435\u0440\u0442"},{"ID":"4198","NAME":" "},{"ID":"4200","NAME":"\u0414\u0430\u0440\u044c\u044f"},{"ID":"4202","NAME":"\u042d\u0434\u0443\u0430\u0440\u0434"},{"ID":"4204","NAME":"\u0420\u0435\u043d\u0430\u0442"},{"ID":"4206","NAME":"\u0414\u0435\u043d\u0438\u0441"},{"ID":"4208","NAME":"\u0410\u043b\u0435\u043a\u0441\u0430\u043d\u0434\u0440"},{"ID":"4210","NAME":"\u0412\u0438\u0442\u0430\u043b\u0438\u0439"},{"ID":"4212","NAME":"\u0418\u043b\u044c\u043d\u0443\u0440"},{"ID":"4214","NAME":"\u0413\u0443\u0437\u0435\u043b\u044c"},{"ID":"4216","NAME":"\u042d\u043b\u044c\u043c\u0430\u0440"},{"ID":"4218","NAME":"\u042d\u043d\u0432\u0430\u0440"},{"ID":"4220","NAME":"\u0421\u0435\u0440\u0433\u0435\u0439"},{"ID":"4222","NAME":"\u042d\u0434\u0443\u0430\u0440\u0434"},{"ID":"4224","NAME":"\u042f\u043a\u0443\u0431"},{"ID":"4226","NAME":"\u0412\u0438\u043a\u0442\u043e\u0440\u0438\u044f"},{"ID":"4228","NAME":"\u0410\u0440\u0442\u0435\u043c"},{"ID":"4230","NAME":"\u041c\u0438\u0445\u0430\u0438\u043b"},{"ID":"4232","NAME":"\u0418\u0433\u043e\u0440\u044c"},{"ID":"4234","NAME":"\u042e\u0440\u0438\u0439"},{"ID":"4236","NAME":"\u0410\u043b\u0435\u043a\u0441\u0435\u0439"},{"ID":"4238","NAME":"\u041c\u0430\u0440\u0430\u0442"},{"ID":"4240","NAME":" "},{"ID":"4242","NAME":"\u0421\u0435\u0440\u0433\u0435\u0439"},{"ID":"4244","NAME":"\u041c\u0438\u0445\u0430\u0438\u043b"},{"ID":"4246","NAME":"\u0421\u0442\u0430\u043d\u0438\u0441\u043b\u0430\u0432"},{"ID":"4248","NAME":"\u042e\u0440\u0438\u0439"},{"ID":"4250","NAME":"\u0422\u0438\u043c\u0443\u0440"},{"ID":"4252","NAME":"\u0420\u0443\u0441\u0442\u0430\u043c"},{"ID":"4254","NAME":"\u0412\u043b\u0430\u0434\u0438\u043c\u0438\u0440"},{"ID":"4256","NAME":"\u0420\u043e\u0431\u0435\u0440\u0442"},{"ID":"4258","NAME":"\u0410\u0440\u0442\u0435\u043c"},{"ID":"4260","NAME":"\u041e\u0441\u043a\u0430\u0440"},{"ID":"4262","NAME":"\u0418\u0440\u0435\u043a"},{"ID":"4264","NAME":"\u0412\u044f\u0447\u0435\u0441\u043b\u0430\u0432"},{"ID":"4266","NAME":"\u041c\u0430\u043a\u0441\u0438\u043c"},{"ID":"4268","NAME":"\u0414\u0438\u043d\u0430"},{"ID":"4270","NAME":"\u0410\u043b\u0435\u043a\u0441\u0430\u043d\u0434\u0440"},{"ID":"4272","NAME":"\u0418\u043b\u044c\u0434\u0443\u0441"},{"ID":"4274","NAME":"\u0412\u0438\u043b\u044c"},{"ID":"4276","NAME":"\u0410\u0434\u0435\u043b\u044f"},{"ID":"4278","NAME":"\u0412\u0430\u0434\u0438\u043c"},{"ID":"4280","NAME":"\u0421\u0435\u0440\u0433\u0435\u0439"},{"ID":"4282","NAME":"\u041c\u0430\u043a\u0441\u0438\u043c"},{"ID":"4284","NAME":"\u0418\u0433\u043e\u0440\u044c"},{"ID":"4286","NAME":"\u041c\u0438\u043d\u043d\u0435\u0430\u0437\u0430\u0442"}],"next":250,"total":2496,"time":{"start":1700205647.129281,"finish":1700205647.248156,"duration":0.11887502670288086,"processing":0.0782771110534668,"date_start":"2023-11-17T10:20:47+03:00","date_finish":"2023-11-17T10:20:47+03:00","operating_reset_at":1700206247,"operating":0.3281378746032715}}}