{"url":"https:\/\/antaressoft.bitrix24.ru\/rest\/120\/k4hgwbw1918dyok8\/crm.contact.list.json","info":{"url":"https:\/\/antaressoft.bitrix24.ru\/rest\/120\/k4hgwbw1918dyok8\/crm.contact.list.json","content_type":"application\/json; charset=utf-8","http_code":200,"header_size":1031,"request_size":214,"filetime":-1,"ssl_verify_result":19,"redirect_count":0,"total_time":0.370295,"namelookup_time":0.053826,"connect_time":0.085069,"pretransfer_time":0.121459,"size_upload":55,"size_download":4695,"speed_download":12679,"speed_upload":148,"download_content_length":-1,"upload_content_length":55,"starttransfer_time":0.121498,"redirect_time":0,"redirect_url":"","primary_ip":"95.163.249.170","certinfo":[],"primary_port":443,"local_ip":"192.168.0.176","local_port":55337,"http_version":3,"protocol":2,"ssl_verifyresult":0,"scheme":"HTTPS","appconnect_time_us":120988,"connect_time_us":85069,"namelookup_time_us":53826,"pretransfer_time_us":121459,"redirect_time_us":0,"starttransfer_time_us":121498,"total_time_us":370295,"effective_method":"POST"},"params":{"method":"crm.contact.list","params":{"select":["ID","NAME","PHONE"]}},"result":{"result":[{"ID":"18","NAME":"\u0418\u0440\u0438\u043d\u0430","PHONE":[{"ID":"34","VALUE_TYPE":"WORK","VALUE":"+79181556109","TYPE_ID":"PHONE"}]},{"ID":"20","NAME":"\u041b\u0435\u0441\u044f","PHONE":[{"ID":"38","VALUE_TYPE":"WORK","VALUE":"+79884090055","TYPE_ID":"PHONE"}]},{"ID":"22","NAME":"\u041e\u043b\u044c\u0433\u0430","PHONE":[{"ID":"42","VALUE_TYPE":"WORK","VALUE":"+79199341551","TYPE_ID":"PHONE"}]},{"ID":"24","NAME":"\u041d\u0430\u0438\u043b\u044c","PHONE":[{"ID":"46","VALUE_TYPE":"WORK","VALUE":"+79961008441","TYPE_ID":"PHONE"}]},{"ID":"26","NAME":"\u0418\u0432\u0430\u043d","PHONE":[{"ID":"60","VALUE_TYPE":"WORK","VALUE":"+79134254070","TYPE_ID":"PHONE"}]},{"ID":"28","NAME":"\u0412\u044f\u0447\u0435\u0441\u043b\u0430\u0432","PHONE":[{"ID":"64","VALUE_TYPE":"WORK","VALUE":"+79051734444","TYPE_ID":"PHONE"}]},{"ID":"30","NAME":"\u041e\u043b\u0435\u0433","PHONE":[{"ID":"72","VALUE_TYPE":"WORK","VALUE":"+79821535872","TYPE_ID":"PHONE"}]},{"ID":"32","NAME":null},{"ID":"34","NAME":"\u0420\u0443\u0441\u043b\u0430\u043d","PHONE":[{"ID":"76","VALUE_TYPE":"WORK","VALUE":"+79185034931","TYPE_ID":"PHONE"}]},{"ID":"40","NAME":"\u0421\u0442\u0430\u043d\u0438\u0441\u043b\u0430\u0432","PHONE":[{"ID":"88","VALUE_TYPE":"WORK","VALUE":"+79226085130","TYPE_ID":"PHONE"}]},{"ID":"42","NAME":"\u041a\u0430\u043c\u0438\u043b\u044c","PHONE":[{"ID":"90","VALUE_TYPE":"WORK","VALUE":"+79174034873","TYPE_ID":"PHONE"}]},{"ID":"44","NAME":"\u0410\u043d\u0430\u0441\u0442\u0430\u0441\u0438\u044f","PHONE":[{"ID":"100","VALUE_TYPE":"WORK","VALUE":"+79173521804","TYPE_ID":"PHONE"}]},{"ID":"46","NAME":"\u041b\u0438\u043d\u0430\u0440","PHONE":[{"ID":"104","VALUE_TYPE":"WORK","VALUE":"+79373448440","TYPE_ID":"PHONE"}]},{"ID":"52","NAME":"\u0410\u043b\u0435\u043a\u0441\u0430\u043d\u0434\u0440","PHONE":[{"ID":"120","VALUE_TYPE":"WORK","VALUE":"+79051910144","TYPE_ID":"PHONE"}]},{"ID":"54","NAME":"\u0410\u043b\u0435\u043d\u0430","PHONE":[{"ID":"130","VALUE_TYPE":"WORK","VALUE":"+79625260550","TYPE_ID":"PHONE"}]},{"ID":"56","NAME":"\u041a\u0441\u0435\u043d\u0438\u044f","PHONE":[{"ID":"134","VALUE_TYPE":"WORK","VALUE":"+79869743020","TYPE_ID":"PHONE"}]},{"ID":"58","NAME":"\u041a\u0438\u0440\u0430","PHONE":[{"ID":"138","VALUE_TYPE":"WORK","VALUE":"+79177554732","TYPE_ID":"PHONE"}]},{"ID":"60","NAME":"\u0415\u0432\u0433\u0435\u043d\u0438\u044f","PHONE":[{"ID":"142","VALUE_TYPE":"WORK","VALUE":"+79237750908","TYPE_ID":"PHONE"}]},{"ID":"64","NAME":"\u0420\u0443\u0441\u0442\u0435\u043c","PHONE":[{"ID":"148","VALUE_TYPE":"OTHER","VALUE":"+79373408020","TYPE_ID":"PHONE"}]},{"ID":"3826","NAME":"\u0418\u043b\u044c\u0448\u0430\u0442"},{"ID":"3828","NAME":"\u041c\u0438\u0434\u0443\u0448"},{"ID":"3830","NAME":"\u041e\u043b\u0435\u0433"},{"ID":"3832","NAME":"\u0420\u0443\u0441\u043b\u0430\u043d"},{"ID":"3834","NAME":"\u0410\u043d\u0434\u0440\u0435\u0439"},{"ID":"3836","NAME":"\u0418\u0440\u0438\u043d\u0430"},{"ID":"3838","NAME":"\u041d\u0430\u0442\u0430\u043b\u044c\u044f"},{"ID":"3840","NAME":"\u0421\u0435\u0440\u0433\u0435\u0439"},{"ID":"3842","NAME":"\u041e\u043b\u0435\u0441\u044f"},{"ID":"3844","NAME":"\u0422\u0445\u0438 \u0422\u0445\u0443 \u0425\u0438\u0435\u043d"},{"ID":"3846","NAME":"\u0420\u043e\u043c\u0430\u043d"},{"ID":"3848","NAME":"\u0410\u043d\u0434\u0440\u0435\u0439"},{"ID":"3850","NAME":"\u0410\u043b\u0438\u044f"},{"ID":"3852","NAME":"\u0410\u043d\u0442\u043e\u043d"},{"ID":"3854","NAME":"\u041b\u0430\u0440\u0438\u0441\u0430"},{"ID":"3856","NAME":"\u041f\u0435\u0442\u0440"},{"ID":"3858","NAME":"\u0418\u0440\u0438\u043d\u0430"},{"ID":"3860","NAME":"\u0420\u0443\u0441\u043b\u0430\u043d"},{"ID":"3862","NAME":"\u0420\u0443\u0441\u0442\u0430\u043c"},{"ID":"3864","NAME":"\u0410\u0439\u0433\u0443\u043b\u044c"},{"ID":"3866","NAME":"\u041d\u0430\u0438\u043d\u0430"},{"ID":"3868","NAME":"\u0410\u043b\u044c\u0431\u0438\u043d\u0430"},{"ID":"3870","NAME":"\u0410\u043b\u044c\u0431\u0435\u0440\u0442"},{"ID":"3872","NAME":"\u041e\u043b\u044c\u0433\u0430"},{"ID":"3874","NAME":"\u041b\u0438\u043b\u0438\u044f"},{"ID":"3876","NAME":"\u0413\u0435\u0440\u043c\u0430\u043d"},{"ID":"3878","NAME":"\u041e\u043b\u0435\u0433"},{"ID":"3880","NAME":"\u041f\u0430\u0432\u0435\u043b"},{"ID":"3882","NAME":"\u0410\u043b\u0435\u043a\u0441\u0430\u043d\u0434\u0440"},{"ID":"3884","NAME":"\u0412\u043b\u0430\u0434\u0438\u043c\u0438\u0440"},{"ID":"3886","NAME":"\u0418\u0440\u0438\u043d\u0430"}],"next":50,"total":2496,"time":{"start":1700205499.482715,"finish":1700205499.643555,"duration":0.16084003448486328,"processing":0.10220003128051758,"date_start":"2023-11-17T10:18:19+03:00","date_finish":"2023-11-17T10:18:19+03:00","operating_reset_at":1700206099,"operating":0.32969117164611816}}}