{"url":"https:\/\/antaressoft.bitrix24.ru\/rest\/120\/k4hgwbw1918dyok8\/crm.contact.list.json","info":{"url":"https:\/\/antaressoft.bitrix24.ru\/rest\/120\/k4hgwbw1918dyok8\/crm.contact.list.json","content_type":"application\/json; charset=utf-8","http_code":200,"header_size":1035,"request_size":214,"filetime":-1,"ssl_verify_result":19,"redirect_count":0,"total_time":0.454572,"namelookup_time":0.049625,"connect_time":0.090029,"pretransfer_time":0.13857,"size_upload":35,"size_download":3191,"speed_download":7019,"speed_upload":76,"download_content_length":-1,"upload_content_length":35,"starttransfer_time":0.138589,"redirect_time":0,"redirect_url":"","primary_ip":"46.235.53.67","certinfo":[],"primary_port":443,"local_ip":"192.168.0.176","local_port":54367,"http_version":3,"protocol":2,"ssl_verifyresult":0,"scheme":"HTTPS","appconnect_time_us":138082,"connect_time_us":90029,"namelookup_time_us":49625,"pretransfer_time_us":138570,"redirect_time_us":0,"starttransfer_time_us":138589,"total_time_us":454572,"effective_method":"POST"},"params":{"method":"crm.contact.list","params":{"select":["ID","NAME"]}},"result":{"result":[{"ID":"18","NAME":"\u0418\u0440\u0438\u043d\u0430"},{"ID":"20","NAME":"\u041b\u0435\u0441\u044f"},{"ID":"22","NAME":"\u041e\u043b\u044c\u0433\u0430"},{"ID":"24","NAME":"\u041d\u0430\u0438\u043b\u044c"},{"ID":"26","NAME":"\u0418\u0432\u0430\u043d"},{"ID":"28","NAME":"\u0412\u044f\u0447\u0435\u0441\u043b\u0430\u0432"},{"ID":"30","NAME":"\u041e\u043b\u0435\u0433"},{"ID":"32","NAME":null},{"ID":"34","NAME":"\u0420\u0443\u0441\u043b\u0430\u043d"},{"ID":"40","NAME":"\u0421\u0442\u0430\u043d\u0438\u0441\u043b\u0430\u0432"},{"ID":"42","NAME":"\u041a\u0430\u043c\u0438\u043b\u044c"},{"ID":"44","NAME":"\u0410\u043d\u0430\u0441\u0442\u0430\u0441\u0438\u044f"},{"ID":"46","NAME":"\u041b\u0438\u043d\u0430\u0440"},{"ID":"52","NAME":"\u0410\u043b\u0435\u043a\u0441\u0430\u043d\u0434\u0440"},{"ID":"54","NAME":"\u0410\u043b\u0435\u043d\u0430"},{"ID":"56","NAME":"\u041a\u0441\u0435\u043d\u0438\u044f"},{"ID":"58","NAME":"\u041a\u0438\u0440\u0430"},{"ID":"60","NAME":"\u0415\u0432\u0433\u0435\u043d\u0438\u044f"},{"ID":"64","NAME":"\u0420\u0443\u0441\u0442\u0435\u043c"},{"ID":"3826","NAME":"\u0418\u043b\u044c\u0448\u0430\u0442"},{"ID":"3828","NAME":"\u041c\u0438\u0434\u0443\u0448"},{"ID":"3830","NAME":"\u041e\u043b\u0435\u0433"},{"ID":"3832","NAME":"\u0420\u0443\u0441\u043b\u0430\u043d"},{"ID":"3834","NAME":"\u0410\u043d\u0434\u0440\u0435\u0439"},{"ID":"3836","NAME":"\u0418\u0440\u0438\u043d\u0430"},{"ID":"3838","NAME":"\u041d\u0430\u0442\u0430\u043b\u044c\u044f"},{"ID":"3840","NAME":"\u0421\u0435\u0440\u0433\u0435\u0439"},{"ID":"3842","NAME":"\u041e\u043b\u0435\u0441\u044f"},{"ID":"3844","NAME":"\u0422\u0445\u0438 \u0422\u0445\u0443 \u0425\u0438\u0435\u043d"},{"ID":"3846","NAME":"\u0420\u043e\u043c\u0430\u043d"},{"ID":"3848","NAME":"\u0410\u043d\u0434\u0440\u0435\u0439"},{"ID":"3850","NAME":"\u0410\u043b\u0438\u044f"},{"ID":"3852","NAME":"\u0410\u043d\u0442\u043e\u043d"},{"ID":"3854","NAME":"\u041b\u0430\u0440\u0438\u0441\u0430"},{"ID":"3856","NAME":"\u041f\u0435\u0442\u0440"},{"ID":"3858","NAME":"\u0418\u0440\u0438\u043d\u0430"},{"ID":"3860","NAME":"\u0420\u0443\u0441\u043b\u0430\u043d"},{"ID":"3862","NAME":"\u0420\u0443\u0441\u0442\u0430\u043c"},{"ID":"3864","NAME":"\u0410\u0439\u0433\u0443\u043b\u044c"},{"ID":"3866","NAME":"\u041d\u0430\u0438\u043d\u0430"},{"ID":"3868","NAME":"\u0410\u043b\u044c\u0431\u0438\u043d\u0430"},{"ID":"3870","NAME":"\u0410\u043b\u044c\u0431\u0435\u0440\u0442"},{"ID":"3872","NAME":"\u041e\u043b\u044c\u0433\u0430"},{"ID":"3874","NAME":"\u041b\u0438\u043b\u0438\u044f"},{"ID":"3876","NAME":"\u0413\u0435\u0440\u043c\u0430\u043d"},{"ID":"3878","NAME":"\u041e\u043b\u0435\u0433"},{"ID":"3880","NAME":"\u041f\u0430\u0432\u0435\u043b"},{"ID":"3882","NAME":"\u0410\u043b\u0435\u043a\u0441\u0430\u043d\u0434\u0440"},{"ID":"3884","NAME":"\u0412\u043b\u0430\u0434\u0438\u043c\u0438\u0440"},{"ID":"3886","NAME":"\u0418\u0440\u0438\u043d\u0430"}],"next":50,"total":2496,"time":{"start":1700204299.128033,"finish":1700204299.348597,"duration":0.2205641269683838,"processing":0.09516596794128418,"date_start":"2023-11-17T09:58:19+03:00","date_finish":"2023-11-17T09:58:19+03:00","operating_reset_at":1700204899,"operating":0.932415246963501}}}